<?xml version="1.0" encoding="UTF-8"?>
<svg width="75px" height="66px" viewBox="0 0 75 66" version="1.1" xmlns="http://www.w3.org/2000/svg" xmlns:xlink="http://www.w3.org/1999/xlink">
    <!-- Generator: Sketch 49.3 (51167) - http://www.bohemiancoding.com/sketch -->
    <title>Heart_2_</title>
    <desc>Created with Sketch.</desc>
    <defs></defs>
    <g id="Page-1" stroke="none" stroke-width="1" fill="none" fill-rule="evenodd">
        <g id="new-insta" transform="translate(-719.000000, -1813.000000)" stroke="#212121" stroke-width="4">
            <g id="Low_bar" transform="translate(-1.000000, 1769.000000)">
                <g id="buttons" transform="translate(74.000000, 41.000000)">
                    <path d="M665.5,52 C665.5,52 682.9,66.1 684,66.1 C684.9,66.1 702.6,51.3 702.6,51.3 C702.6,51.3 715,41.5 717.8,32.5 C721.9,19.2 713.9,5.4 700.6,5.4 C687.4,5.5 686.5,14.5 684,14.5 C681.5,14.5 678.5,5.3 666.9,5.3 C655.4,5.3 644.1,19.3 650.2,35.5 C652.6,41.5 665.5,52 665.5,52 Z" id="Heart_2_"></path>
                </g>
            </g>
        </g>
    </g>
</svg>