<?xml version="1.0" encoding="UTF-8"?>
<svg width="80px" height="75px" viewBox="0 0 80 75" version="1.1" xmlns="http://www.w3.org/2000/svg" xmlns:xlink="http://www.w3.org/1999/xlink">
    <!-- Generator: Sketch 49.3 (51167) - http://www.bohemiancoding.com/sketch -->
    <title>on_x2F_off_Home</title>
    <desc>Created with Sketch.</desc>
    <defs></defs>
    <g id="Page-1" stroke="none" stroke-width="1" fill="none" fill-rule="evenodd">
        <g id="new-insta" transform="translate(-70.000000, -1813.000000)">
            <g id="Low_bar" transform="translate(-1.000000, 1769.000000)">
                <g id="buttons" transform="translate(74.000000, 41.000000)">
                    <g id="on_x2F_off_Home" transform="translate(0.000000, 5.000000)">
                        <g id="off_Home_2_" stroke="#212121" stroke-width="4.6628">
                            <path d="M0.3,40.2 C0.3,38.3 1.4,35.7 2.7,34.4 L35,1.4 C36.3,0.1 38.4,0.1 39.7,1.4 L72,34.4 C73.3,35.7 74.4,38.3 74.4,40.2 L74.4,66.8 C74.4,68.7 72.9,70.2 71,70.2 L47.4,70.2 C45.5,70.2 44,68.7 44,66.8 L44,48.9 C44,48.9 44.8,39.8 37.2,40.2 C29.8,39.9 30.4,48.9 30.4,48.9 L30.4,66.8 C30.4,68.7 28.9,70.2 27,70.2 L3.6,70.2 C1.7,70.2 0.2,68.7 0.2,66.8 L0.2,40.2 L0.3,40.2 Z" id="Shape"></path>
                        </g>
                        <path d="M0.3,40.2 C0.3,38.3 1.4,35.7 2.7,34.4 L35,1.4 C36.3,0.1 38.4,0.1 39.7,1.4 L72,34.4 C73.3,35.7 74.4,38.3 74.4,40.2 L74.4,66.8 C74.4,68.7 72.9,70.2 71,70.2 L47.4,70.2 C45.5,70.2 44,68.7 44,66.8 L44,48.9 C44,48.9 44.8,39.8 37.2,40.2 C29.8,39.9 30.4,48.9 30.4,48.9 L30.4,66.8 C30.4,68.7 28.9,70.2 27,70.2 L3.6,70.2 C1.7,70.2 0.2,68.7 0.2,66.8 L0.2,40.2 L0.3,40.2 Z" id="on_x5F_Home" stroke="#262626"></path>
                    </g>
                </g>
            </g>
        </g>
    </g>
</svg>