<?xml version="1.0" encoding="UTF-8"?>
<svg width="56px" height="55px" viewBox="0 0 56 55" version="1.1" xmlns="http://www.w3.org/2000/svg" xmlns:xlink="http://www.w3.org/1999/xlink">
    <!-- Generator: Sketch 46.2 (44496) - http://www.bohemiancoding.com/sketch -->
    <title>mentions</title>
    <desc>Created with Sketch.</desc>
    <defs></defs>
    <g id="Page-1" stroke="none" stroke-width="1" fill="none" fill-rule="evenodd">
        <g id="inst-ver.2" transform="translate(-781.000000, -684.000000)">
            <g id="Lenta-usera" transform="translate(-8.000000, 77.000000)">
                <g id="View_options_bar" transform="translate(7.000000, 573.000000)">
                    <g id="mentions" transform="translate(784.000000, 36.000000)">
                        <path d="M26.1,28.7 C29.7,28.7 32.5,25.7 32.5,22.1 C32.5,18.4 29.6,15.5 26.1,15.5 C22.5,15.5 19.7,18.5 19.7,22.1 C19.6,25.7 22.5,28.7 26.1,28.7 L26.1,28.7 Z" id="Shape" stroke="#989898" stroke-width="3.5655"></path>
                        <path d="M13.9,33.4 C13.9,32 15,30.8 16.5,30.8 L34.5,30.8 C35.9,30.8 37.1,31.9 37.1,33.4 L37.1,39.7 C37.1,41.1 35.9,42.3 34.5,42.3 L16.5,42.3 C15.1,42.3 13.9,41.2 13.9,39.7 L13.9,33.4 L13.9,33.4 Z" id="Shape" stroke="#989898" stroke-width="3.5655"></path>
                        <rect id="Rectangle-path" fill="#FFFFFF" fill-rule="nonzero" x="10.6" y="36.3" width="28.3" height="6.7"></rect>
                        <path d="M0.3,12.1 C0.3,9.3 2.6,7 5.5,7 L18.5,7 L24.6,1.2 C25.6,0.2 27.3,0.2 28.3,1.3 L34,7 L46.6,7 C49.4,7 51.7,9.3 51.7,12.1 L51.7,45.6 C51.7,48.4 49.4,50.7 46.6,50.7 L5.4,50.7 C2.6,50.7 0.3,48.4 0.3,45.6 L0.3,12.1 L0.3,12.1 Z" id="Shape" stroke="#989898" stroke-width="3.5655"></path>
                    </g>
                </g>
            </g>
        </g>
    </g>
</svg>