<?xml version="1.0" encoding="UTF-8"?>
<svg width="49px" height="29px" viewBox="0 0 49 29" version="1.1" xmlns="http://www.w3.org/2000/svg" xmlns:xlink="http://www.w3.org/1999/xlink">
    <!-- Generator: Sketch 49.3 (51167) - http://www.bohemiancoding.com/sketch -->
    <title>Shape</title>
    <desc>Created with Sketch.</desc>
    <defs></defs>
    <g id="Page-1" stroke="none" stroke-width="1" fill="none" fill-rule="evenodd" stroke-linecap="round">
        <g id="fb-newsfeed-ver-2" transform="translate(-993.000000, -605.000000)" stroke="#767676" stroke-width="6">
            <g id="lenta" transform="translate(-1440.000000, 251.000000)">
                <g id="tech" transform="translate(0.000000, 154.000000)">
                    <polyline id="Shape" points="2436.2 203.8 2457.9 224.3 2478.5 203.8"></polyline>
                </g>
            </g>
        </g>
    </g>
</svg>