<?xml version="1.0" encoding="UTF-8"?>
<svg width="73px" height="73px" viewBox="0 0 73 73" version="1.1" xmlns="http://www.w3.org/2000/svg" xmlns:xlink="http://www.w3.org/1999/xlink">
    <!-- Generator: Sketch 49.1 (51147) - http://www.bohemiancoding.com/sketch -->
    <title>Like_1_</title>
    <desc>Created with Sketch.</desc>
    <defs></defs>
    <g id="IOS" stroke="none" stroke-width="1" fill="none" fill-rule="evenodd">
        <g id="lenta-new" transform="translate(-28.000000, -6878.000000)">
            <g id="lenta">
                <g id="posts" transform="translate(0.000000, 832.000000)">
                    <g id="txt" transform="translate(32.000000, 5610.000000)">
                        <g id="Group" transform="translate(0.000000, 439.000000)">
                            <g id="Like_1_">
                                <g id="Outline_1_">
                                    <path d="M61.8,33.4 C61.8,49.3 48.9,62.3 32.9,62.3 C16.9,62.3 4,49.3 4,33.4 C4,17.5 16.9,4.5 32.9,4.5 C48.9,4.5 61.8,17.4 61.8,33.4" id="path-21_4_" fill="#FFD876" fill-rule="nonzero"></path>
                                    <path d="M65.4,33.4 C65.4,51.3 50.9,65.9 32.9,65.9 C14.9,65.9 0.4,51.4 0.4,33.4 C0.4,15.4 14.9,0.9 32.9,0.9 C50.9,0.9 65.4,15.4 65.4,33.4 Z" id="Shape" stroke="#FFFFFF" stroke-width="7.2199"></path>
                                </g>
                                <path d="M61.8,33.4 C61.8,49.3 48.9,62.3 32.9,62.3 C16.9,62.3 4,49.3 4,33.4 C4,17.5 16.9,4.5 32.9,4.5 C48.9,4.5 61.8,17.4 61.8,33.4" id="Fill-70_1_" fill="#4080FF" fill-rule="nonzero"></path>
                                <path d="M47.8,33.6 C47.8,32.1 47.3,31.7 46.8,31.3 C47.1,30.8 47.4,30.1 47.4,29.2 C47.4,27.4 46,26.2 43.7,26.2 L37.7,26.2 C37.9,25.2 38.1,23.3 38.1,22.4 C38.1,20.5 37.6,18 35.9,17.1 C35.4,16.8 34.9,16.7 34.3,16.7 C33.3,16.7 32.6,17.1 32.3,17.4 C32.1,17.6 32.1,17.8 32.1,18 L32.2,22 C32.2,25 27.6,28.9 27.6,31.9 L27.6,41.7 C27.6,43.3 29.9,44.3 32.9,44.3 L41.4,44.3 C43,44.3 44,43.8 44.6,42.7 C45.1,41.7 45,40.8 44.8,40.2 C45.7,39.9 46.5,39.3 46.7,38.1 C46.9,37.3 46.7,36.7 46.4,36.2 C47.1,35.7 47.8,35.1 47.8,33.6" id="Fill-82_1_" fill="#FFFFFF" fill-rule="nonzero"></path>
                                <path d="M24.2,29.8 L19.9,29.8 C19.1,29.8 18.4,30.5 18.4,31.3 L18.4,44.6 C18.4,45.4 19.1,46.1 19.9,46.1 L24.2,46.1 C25,46.1 25.7,45.4 25.7,44.6 L25.7,31.3 C25.7,30.4 25,29.8 24.2,29.8" id="Fill-84_1_" fill="#FFFFFF" fill-rule="nonzero"></path>
                            </g>
                        </g>
                    </g>
                </g>
            </g>
        </g>
    </g>
</svg>