<?xml version="1.0" encoding="UTF-8"?>
<svg width="43px" height="43px" viewBox="0 0 43 43" version="1.1" xmlns="http://www.w3.org/2000/svg" xmlns:xlink="http://www.w3.org/1999/xlink">
    <!-- Generator: Sketch 49.3 (51167) - http://www.bohemiancoding.com/sketch -->
    <title>Shape</title>
    <desc>Created with Sketch.</desc>
    <defs></defs>
    <g id="Page-1" stroke="none" stroke-width="1" fill="none" fill-rule="evenodd">
        <g id="5-23---FACEBOOK-новый-пост-[iOS]" transform="translate(-997.000000, -620.000000)" fill="#FFFFFF" fill-rule="nonzero">
            <g id="close-(3)" transform="translate(997.000000, 620.000000)">
                <path d="M25.2875833,21.4874583 L42.1865833,4.58845833 C43.2365,3.5394375 43.2365,1.83735417 42.1865833,0.788333333 C41.1366667,-0.261583333 39.436375,-0.261583333 38.3864583,0.788333333 L21.4874583,17.6873333 L4.5875625,0.788333333 C3.53764583,-0.261583333 1.83735417,-0.261583333 0.7874375,0.788333333 C-0.262479167,1.83735417 -0.262479167,3.5394375 0.7874375,4.58845833 L17.6873333,21.4874583 L0.7874375,38.3864583 C-0.262479167,39.4354792 -0.262479167,41.1375625 0.7874375,42.1865833 C1.31239583,42.7106458 2.00039583,42.973125 2.6875,42.973125 C3.37460417,42.973125 4.06260417,42.7106458 4.5875625,42.1856875 L21.4874583,25.2866875 L38.3864583,42.1856875 C38.9114167,42.7106458 39.5994167,42.973125 40.2865208,42.973125 C40.973625,42.973125 41.661625,42.7106458 42.1865833,42.1856875 C43.2365,41.1366667 43.2365,39.4345833 42.1865833,38.3855625 L25.2875833,21.4874583 Z" id="Shape"></path>
            </g>
        </g>
    </g>
</svg>