<?xml version="1.0" encoding="UTF-8"?>
<svg width="65px" height="82px" viewBox="0 0 65 82" version="1.1" xmlns="http://www.w3.org/2000/svg" xmlns:xlink="http://www.w3.org/1999/xlink">
    <!-- Generator: Sketch 49.3 (51167) - http://www.bohemiancoding.com/sketch -->
    <title>Shape</title>
    <desc>Created with Sketch.</desc>
    <defs></defs>
    <g id="IOS" stroke="none" stroke-width="1" fill="none" fill-rule="evenodd">
        <g id="11-6-FB-new-text-post-[iOS]" transform="translate(-44.000000, -1356.000000)" fill="#F5156F" fill-rule="nonzero">
            <g id="post-create" transform="translate(-2.000000, 0.000000)">
                <g id="low_x5F_bar" transform="translate(1.000000, 906.000000)">
                    <path d="M77.2,450 C58.2,450 45,463.5 45,482.9 C45,506.9 75.1,531 75.4,531.2 C75.9,531.6 76.6,531.8 77.2,531.8 C77.8,531.8 78.5,531.6 79,531.2 C79.3,531 109.4,506.8 109.4,482.9 C109.4,463.5 96.2,450 77.2,450 Z M77.2,494.3 C70.6,494.3 65.3,489 65.3,482.4 C65.3,475.8 70.6,470.5 77.2,470.5 C83.8,470.5 89.1,475.8 89.1,482.4 C89.1,489 83.8,494.3 77.2,494.3 Z" id="Shape"></path>
                </g>
            </g>
        </g>
    </g>
</svg>