<?xml version="1.0" encoding="UTF-8"?>
<svg width="49px" height="49px" viewBox="0 0 49 49" version="1.1" xmlns="http://www.w3.org/2000/svg" xmlns:xlink="http://www.w3.org/1999/xlink">
    <!-- Generator: Sketch 49.1 (51147) - http://www.bohemiancoding.com/sketch -->
    <title>maximize</title>
    <desc>Created with Sketch.</desc>
    <defs></defs>
    <g id="IOS" stroke="none" stroke-width="1" fill="none" fill-rule="evenodd">
        <g id="7-32---FACEBOOK---[iOS]---Новый-пост-на-чужой-странице1" transform="translate(-906.000000, -372.000000)" fill="#B3B3B3" fill-rule="nonzero">
            <g id="maximize" transform="translate(906.000000, 372.000000)">
                <path d="M47.0177963,0 L31.9822037,0 C30.8874008,0 30,0.887496658 30,1.98220366 C30,3.07691066 30.8874008,3.96440732 31.9822037,3.96440732 L45.0355927,3.96440732 L45.0355927,17.0177963 C45.0355927,18.1125033 45.9229935,19 47.0177963,19 C48.1125992,19 49,18.1125033 49,17.0177963 L49,1.98220366 C49,0.887496658 48.1125992,0 47.0177963,0 Z" id="Shape"></path>
                <path d="M17.0177963,45.0355927 L3.96450316,45.0355927 L3.96450316,31.9822037 C3.96450316,30.8874008 3.0770065,30 1.9822995,30 C0.887496658,30 0,30.8874008 0,31.9822037 L0,47.0177963 C0,48.1125992 0.887496658,49 1.98220366,49 L17.0177963,49 C18.1125033,49 19,48.1125992 19,47.0177963 C19.0000958,45.9229935 18.1125033,45.0355927 17.0177963,45.0355927 Z" id="Shape"></path>
                <path d="M48.4331381,0.566927634 C47.6772287,-0.188975878 46.4516953,-0.188975878 45.6957859,0.566927634 L28.5668619,17.6957181 C27.811046,18.4516216 27.811046,19.6771455 28.5668619,20.433049 C28.9447698,20.8109539 29.4402241,21 29.9355848,21 C30.4308519,21 30.9263062,20.8110475 31.3043077,20.433049 L48.4331381,3.30425855 C49.188954,2.54835504 49.188954,1.32283115 48.4331381,0.566927634 Z" id="Shape"></path>
                <path d="M20.4330717,28.5669302 C19.677261,27.8110233 18.4516421,27.8110233 17.6957378,28.5669302 L0.566928265,45.6957033 C-0.188976088,46.4516102 -0.188976088,47.6771396 0.566928265,48.4330464 C0.944833649,48.8111403 1.44028464,49 1.93554845,49 C2.43090586,49 2.92626326,48.8110467 3.30426223,48.4330464 L20.4330717,31.3041797 C21.1889761,30.5483664 21.1889761,29.322837 20.4330717,28.5669302 Z" id="Shape"></path>
            </g>
        </g>
    </g>
</svg>