<?xml version="1.0" encoding="UTF-8"?>
<svg width="51px" height="51px" viewBox="0 0 51 51" version="1.1" xmlns="http://www.w3.org/2000/svg" xmlns:xlink="http://www.w3.org/1999/xlink">
    <!-- Generator: Sketch 49.3 (51167) - http://www.bohemiancoding.com/sketch -->
    <title>смайл</title>
    <desc>Created with Sketch.</desc>
    <defs></defs>
    <g id="IOS" stroke="none" stroke-width="1" fill="none" fill-rule="evenodd">
        <g id="7-3---FACEBOOK-[iOS]---Один-пост-фэйсбука-(чужой)" transform="translate(-78.000000, -853.000000)">
            <g id="post+comments" transform="translate(6.000000, 68.000000)">
                <g id="post" transform="translate(34.000000, 110.000000)">
                    <g id="лайк" transform="translate(0.000000, 678.000000)">
                        <g id="смайл" transform="translate(40.000000, 0.000000)">
                            <circle id="Oval" fill="#FFD972" fill-rule="nonzero" cx="24.4" cy="23.7" r="19.1"></circle>
                            <path d="M11.8,24.6 C11.8,31.1 17.4,36.5 24.4,36.5 C31.4,36.5 37,31.2 37,24.6 L11.8,24.6 Z" id="Shape" fill="#252C37" fill-rule="nonzero"></path>
                            <path d="M24.4,27.7 C20.4,27.7 16.6,28.4 13.1,29.8 C15.1,33.8 19.4,36.6 24.4,36.6 C29.4,36.6 33.7,33.9 35.7,29.9 C32.2,28.4 28.4,27.7 24.4,27.7 Z" id="Shape" fill="#F25268" fill-rule="nonzero"></path>
                            <path d="M35.7,20.8 C35.6,20.8 35.4,20.8 35.3,20.7 L30.3,18.3 C30,18.2 29.8,17.9 29.8,17.5 C29.8,17.2 30,16.9 30.3,16.7 L35.3,14.2 C35.7,14 36.2,14.2 36.5,14.6 C36.7,15 36.5,15.5 36.1,15.8 L32.7,17.5 L36.1,19.1 C36.5,19.3 36.7,19.8 36.5,20.2 C36.4,20.7 36,20.8 35.7,20.8 Z" id="Shape" fill="#252C37" fill-rule="nonzero"></path>
                            <path d="M12.8,20.8 C12.5,20.8 12.2,20.6 12,20.3 C11.8,19.9 12,19.4 12.4,19.2 L15.9,17.6 L12.4,15.8 C12,15.6 11.8,15.1 12,14.6 C12.2,14.2 12.7,14 13.2,14.2 L18.4,16.8 C18.7,16.9 18.9,17.3 18.9,17.6 C18.9,17.9 18.7,18.2 18.4,18.4 L13.2,20.7 C13,20.8 12.9,20.8 12.8,20.8 Z" id="Shape" fill="#252C37" fill-rule="nonzero"></path>
                            <circle id="Oval" stroke="#FFFFFF" stroke-width="5.0124" cx="23.4" cy="22.8" r="22.6"></circle>
                        </g>
                    </g>
                </g>
            </g>
        </g>
    </g>
</svg>