<?xml version="1.0" encoding="UTF-8"?>
<svg width="70px" height="70px" viewBox="0 0 70 70" version="1.1" xmlns="http://www.w3.org/2000/svg" xmlns:xlink="http://www.w3.org/1999/xlink">
    <!-- Generator: Sketch 49.3 (51167) - http://www.bohemiancoding.com/sketch -->
    <title>tag_8_</title>
    <desc>Created with Sketch.</desc>
    <defs></defs>
    <g id="IOS" stroke="none" stroke-width="1" fill="none" fill-rule="evenodd">
        <g id="7-32---FACEBOOK---[iOS]---Новый-пост-на-чужой-странице1" transform="translate(-42.000000, -1894.000000)" fill="#89BE4C">
            <g id="post-create" transform="translate(-2.000000, 0.000000)">
                <g id="low_x5F_bar" transform="translate(1.000000, 906.000000)">
                    <path d="M76.7387387,988.945946 L112.054054,1024.26126 C113.315315,1025.52252 113.315315,1027.72973 112.054054,1028.99099 L83.990991,1057.05405 C82.7297297,1058.31532 80.5225225,1058.31532 79.2612613,1057.05405 L43.9459459,1021.73874 C43.3153153,1021.10811 43,1020.16216 43,1019.21622 L43.9459459,992.72973 C43.9459459,990.837838 45.5225225,988.945946 47.7297297,988.945946 L74.2162162,988 C75.1621622,988 76.1081081,988.315315 76.7387387,988.945946 Z M61.2882883,1006.6036 C63.8108108,1004.08108 63.8108108,999.981982 61.2882883,997.144144 C58.7657658,994.621622 54.6666667,994.621622 51.8288288,997.144144 C49.3063063,999.666667 49.3063063,1003.76577 51.8288288,1006.6036 C54.6666667,1009.44144 58.7657658,1009.44144 61.2882883,1006.6036 Z" id="tag_8_"></path>
                </g>
            </g>
        </g>
    </g>
</svg>