<?xml version="1.0" encoding="UTF-8"?>
<svg width="19px" height="19px" viewBox="0 0 19 19" version="1.1" xmlns="http://www.w3.org/2000/svg" xmlns:xlink="http://www.w3.org/1999/xlink">
    <!-- Generator: Sketch 49.3 (51167) - http://www.bohemiancoding.com/sketch -->
    <title>icon</title>
    <desc>Created with Sketch.</desc>
    <defs></defs>
    <g id="Page-1" stroke="none" stroke-width="1" fill="none" fill-rule="evenodd">
        <g id="Newsfeed" transform="translate(-53.000000, -76.000000)">
            <g id="content" transform="translate(0.000000, 64.000000)">
                <g id="new-post">
                    <g id="button">
                        <g id="c" transform="translate(50.000000, 10.000000)">
                            <g id="icon">
                                <rect id="Rectangle-1419" opacity="0.4" x="0" y="0" width="24" height="24"></rect>
                                <path d="M14.0439575,5 L12.0439575,7 L6,7 C5.44771525,7 5,7.44771525 5,8 L5,18 C5,18.5522847 5.44771525,19 6,19 L16,19 C16.5522847,19 17,18.5522847 17,18 L17,11.9434525 L19,9.94345246 L19,18 C19,19.6568542 17.6568542,21 16,21 L6,21 C4.34314575,21 3,19.6568542 3,18 L3,8 C3,6.34314575 4.34314575,5 6,5 L14.0439575,5 Z" id="substract" fill="#528BCC"></path>
                                <path d="M16.7186431,5.15208274 L18.8399635,7.27340308 L12.2883161,13.8250504 C11.8248727,14.2884938 11.2546502,14.6309584 10.6278016,14.8223232 L8.88839672,15.3533301 C8.78275293,15.3855812 8.67096709,15.3260846 8.63871607,15.2204408 C8.62709607,15.1823774 8.62709607,15.1417128 8.63871607,15.1036495 L9.16972296,13.3642446 C9.36108776,12.737396 9.70355238,12.1671735 10.1669958,11.7037301 L16.7186431,5.15208274 Z M17.6590952,4.21163069 L18.7213869,3.14933891 C19.3071734,2.56355248 20.2569209,2.56355248 20.8427073,3.14933891 C21.4284937,3.73512535 21.4284937,4.68487282 20.8427073,5.27065926 L19.7804155,6.33295103 L17.6590952,4.21163069 Z" id="Combined-Shape" fill="#528BCC"></path>
                            </g>
                        </g>
                    </g>
                </g>
            </g>
        </g>
    </g>
</svg>