<?xml version="1.0" encoding="UTF-8"?>
<svg width="78px" height="78px" viewBox="0 0 78 78" version="1.1" xmlns="http://www.w3.org/2000/svg" xmlns:xlink="http://www.w3.org/1999/xlink">
    <!-- Generator: Sketch 49.1 (51147) - http://www.bohemiancoding.com/sketch -->
    <title>arr blue</title>
    <desc>Created with Sketch.</desc>
    <defs></defs>
    <g id="IOS" stroke="none" stroke-width="1" fill="none" fill-rule="evenodd">
        <g id="1A-IOS" transform="translate(-974.000000, -1819.000000)">
            <g id="arr-blue" transform="translate(974.000000, 1819.000000)">
                <circle id="Oval-6" fill="#2DA3FB" cx="39" cy="39" r="39"></circle>
                <g id="left-arrow" transform="translate(39.000000, 39.416667) rotate(90.000000) translate(-39.000000, -39.416667) translate(19.000000, 24.000000)" fill="#FFFFFF" fill-rule="nonzero">
                    <path d="M38.3842188,14.1666667 L1.61578125,14.1666667 C0.7234375,14.1666667 0,14.9128872 0,15.8333333 C0,16.75386 0.7234375,17.5 1.61578125,17.5 L38.3842188,17.5 C39.2766406,17.5 40,16.75386 40,15.8333333 C40,14.9128872 39.2766406,14.1666667 38.3842188,14.1666667 Z" id="Shape"></path>
                    <path d="M3.81997918,15.4166667 L16.203148,2.76056618 C16.8210709,2.12902783 16.8210709,1.10513347 16.203148,0.473595121 C15.5852251,-0.15786504 14.5834051,-0.15786504 13.9654822,0.473595121 L0.463442176,14.273142 C-0.154480725,14.9046804 -0.154480725,15.9285747 0.463442176,16.5601131 L13.9654822,30.35966 C14.2744054,30.6754683 14.6794176,30.8333333 15.0843533,30.8333333 C15.4892891,30.8333333 15.8943013,30.6754683 16.2032245,30.35966 C16.8211474,29.7281217 16.8211474,28.7042273 16.2032245,28.072689 L3.81997918,15.4166667 Z" id="Shape"></path>
                </g>
            </g>
        </g>
    </g>
</svg>