<?xml version="1.0" encoding="UTF-8"?>
<svg width="78px" height="71px" viewBox="0 0 78 71" version="1.1" xmlns="http://www.w3.org/2000/svg" xmlns:xlink="http://www.w3.org/1999/xlink">
    <!-- Generator: Sketch 49.3 (51167) - http://www.bohemiancoding.com/sketch -->
    <title>Group</title>
    <desc>Created with Sketch.</desc>
    <defs></defs>
    <g id="IOS" stroke="none" stroke-width="1" fill="none" fill-rule="evenodd">
        <g id="11-6-FB-new-text-post-[iOS]" transform="translate(-40.000000, -1717.000000)" fill="#1EA1F3" fill-rule="nonzero">
            <g id="Group" transform="translate(40.000000, 1717.000000)">
                <path d="M65.3,8.5 L62.8,8.5 C59,8.5 57.9,7.2 56.3,5.3 C54.5,3 52.2,0.2 45.9,0.2 L32.5,0.2 C26.2,0.2 23.9,3 22.1,5.3 C20.5,7.2 19.5,8.5 15.6,8.5 L13.1,8.5 C6.1,8.5 0.5,14.2 0.5,21.1 L0.5,58.2 C0.5,65.2 6.2,70.8 13.1,70.8 L65.4,70.8 C72.4,70.8 78,65.1 78,58.2 L78,21.1 C78,14.2 72.3,8.5 65.3,8.5 Z M64.5,25.7 C62.5,25.7 60.8,24 60.8,22 C60.8,20 62.5,18.3 64.5,18.3 C66.5,18.3 68.2,20 68.2,22 C68.2,24 66.5,25.7 64.5,25.7 Z M59.7,38.9 C59.7,47.9 50.5,59.3 39.3,59.3 C28.1,59.3 18.9,50.1 18.9,38.9 C18.9,27.6 28.1,18.5 39.3,18.5 C50.5,18.5 59.7,27.6 59.7,38.9 Z" id="Shape"></path>
                <path d="M39.2,23.7 C30.8,23.7 24,30.5 24,38.9 C24,47.3 30.8,54.1 39.2,54.1 C47.6,54.1 54.4,44.9 54.4,38.9 C54.4,30.5 47.6,23.7 39.2,23.7 Z" id="Shape"></path>
            </g>
        </g>
    </g>
</svg>