<?xml version="1.0" encoding="UTF-8"?>
<svg width="65px" height="52px" viewBox="0 0 65 52" version="1.1" xmlns="http://www.w3.org/2000/svg" xmlns:xlink="http://www.w3.org/1999/xlink">
    <!-- Generator: Sketch 49.3 (51167) - http://www.bohemiancoding.com/sketch -->
    <title>video_3_</title>
    <desc>Created with Sketch.</desc>
    <defs></defs>
    <g id="IOS" stroke="none" stroke-width="1" fill="none" fill-rule="evenodd">
        <g id="11-6-FB-new-text-post-[iOS]" transform="translate(-40.000000, -1551.000000)" fill="#FA3E3E" fill-rule="nonzero">
            <g id="video_3_" transform="translate(40.000000, 1551.000000)">
                <path d="M62.1111111,7.46296296 C61.1481481,7.22222222 60.0648148,7.46296296 59.3425926,8.06481481 L52.3611111,13.1203704 C51.6388889,13.6018519 51.2777778,14.4444444 51.2777778,15.287037 L51.2777778,37.3148148 C51.2777778,38.1574074 51.6388889,39 52.3611111,39.4814815 L59.3425926,44.6574074 C59.9444444,45.1388889 60.6666667,45.2592593 61.3888889,45.2592593 C62.1111111,45.2592593 62.712963,45.0185185 63.3148148,44.6574074 C64.2777778,44.0555556 64.7592593,42.8518519 64.7592593,41.7685185 L64.7592593,10.8333333 C64.7592593,9.26851852 63.7962963,7.82407407 62.1111111,7.46296296 Z" id="Shape"></path>
                <path d="M37.0740741,52 C42.6111111,52 47.1851852,47.4259259 47.1851852,41.8888889 L47.1851852,30.6944444 L47.1851852,21.9074074 L47.1851852,10.8333333 C47.1851852,5.2962963 42.6111111,0.722222222 37.0740741,0.722222222 L10.1111111,0.722222222 C4.57407407,0.722222222 0,5.2962963 0,10.8333333 L0,41.8888889 C0,47.4259259 4.57407407,52 10.1111111,52 L37.0740741,52 Z M7.82407407,25.1574074 C8.06481481,24.7962963 14.4444444,15.5277778 23.712963,15.5277778 C32.8611111,15.5277778 39.2407407,24.7962963 39.6018519,25.1574074 C40.0833333,25.8796296 40.0833333,26.7222222 39.6018519,27.4444444 C39.3611111,27.8055556 32.9814815,37.0740741 23.712963,37.0740741 C14.5648148,37.0740741 8.18518519,27.8055556 7.82407407,27.4444444 C7.34259259,26.8425926 7.34259259,25.8796296 7.82407407,25.1574074 Z" id="Shape"></path>
                <circle id="Oval" cx="23.5925926" cy="26.3611111" r="6.74074074"></circle>
            </g>
        </g>
    </g>
</svg>