<?xml version="1.0" encoding="UTF-8"?>
<svg width="56px" height="47px" viewBox="0 0 56 47" version="1.1" xmlns="http://www.w3.org/2000/svg" xmlns:xlink="http://www.w3.org/1999/xlink">
    <!-- Generator: Sketch 49.1 (51147) - http://www.bohemiancoding.com/sketch -->
    <title>Path 2458</title>
    <desc>Created with Sketch.</desc>
    <defs></defs>
    <g id="Page-1" stroke="none" stroke-width="1" fill="none" fill-rule="evenodd">
        <g id="ENG" transform="translate(-42.000000, -376.000000)" stroke="#000000" stroke-width="2">
            <path d="M95.2017364,404.253343 C96.7880369,404.25582 97.1565276,403.345708 96.0313806,402.220561 L71.9357619,378.124942 C70.8038686,376.993049 68.9841651,377.002021 67.8562721,378.129914 L43.8584263,402.12776 C42.7187382,403.267448 43.0997516,404.171995 44.6830985,404.174467 L56.5768985,404.193037 L56.5768982,417.662996 C56.5768982,420.840733 57.4717385,421.989991 60.64875,421.989991 L77.7703107,421.989991 C80.9427283,421.989991 82.4968982,420.843543 82.4968982,417.662996 L82.4968985,404.233507 L95.2017364,404.253343 Z" id="Path-2458"></path>
        </g>
    </g>
</svg>