<?xml version="1.0" encoding="UTF-8"?>
<svg width="64px" height="47px" viewBox="0 0 64 47" version="1.1" xmlns="http://www.w3.org/2000/svg" xmlns:xlink="http://www.w3.org/1999/xlink">
    <!-- Generator: Sketch 49.1 (51147) - http://www.bohemiancoding.com/sketch -->
    <title>Group</title>
    <desc>Created with Sketch.</desc>
    <defs></defs>
    <g id="Page-1" stroke="none" stroke-width="1" fill="none" fill-rule="evenodd">
        <g id="ENG" transform="translate(-979.000000, -377.000000)">
            <g id="Group" transform="translate(980.000000, 377.000000)">
                <path d="M0.614213562,23.32 L22.2449851,44.9507715 C22.4434395,45.149226 22.9528025,45.36 23.2371736,45.36 L56.804552,45.36 C59.4189878,45.36 61.56,43.1471569 61.56,40.4066511 L61.56,6.23334885 C61.56,3.49733471 59.419162,1.28 56.804552,1.28 L23.2371736,1.28 C22.9532908,1.28 22.4440977,1.49011585 22.2449851,1.68922846 L0.614213562,23.32 Z" id="Path" stroke="#000000" stroke-width="2"></path>
                <path d="M41.2370389,23.0005714 L49.3772992,31.1408317 C49.9427524,31.7062849 49.9491847,32.6166334 49.3829091,33.1829091 C48.8205541,33.745264 47.9107773,33.7472449 47.3408317,33.1772992 L39.2005714,25.0370389 L30.7374657,33.5001446 C30.3503151,33.8872952 29.7182695,33.8829448 29.32421,33.4888853 L28.7122575,32.8769328 C28.3188886,32.4835639 28.3198804,31.8447949 28.7009982,31.4636771 L37.1641039,23.0005714 L29.0238436,14.8603111 C28.4583904,14.2948579 28.4519581,13.3845094 29.0182338,12.8182338 C29.5805887,12.2558788 30.4903655,12.253898 31.0603111,12.8238436 L39.2005714,20.9641039 L47.6636771,12.5009982 C48.0508277,12.1138476 48.6828733,12.1181981 49.0769328,12.5122575 L49.6888853,13.12421 C50.0822543,13.517579 50.0812624,14.1563479 49.7001446,14.5374657 L41.2370389,23.0005714 Z" id="Combined-Shape" fill="#000000"></path>
            </g>
        </g>
    </g>
</svg>