<svg xmlns="http://www.w3.org/2000/svg" width="32" height="58" viewBox="0 0 32 58">
    <g fill="none" fill-rule="evenodd">
        <path stroke="#000" stroke-width="3" d="M30.46 21.996l-28.68-.082v9.915c0 7.134 5.775 12.911 12.903 12.911h2.874c7.126 0 12.903-5.777 12.903-12.903v-9.841z"/>
        <path fill="#000" fill-rule="nonzero" d="M8.92 10.23v20.18c0 3.97 3.223 7.19 7.2 7.19 3.97 0 7.2-3.224 7.2-7.19V10.23c0-3.97-3.223-7.19-7.2-7.19-3.97 0-7.2 3.224-7.2 7.19zm-2.88 0C6.04 4.67 10.564.16 16.12.16c5.567 0 10.08 4.508 10.08 10.07v20.18c0 5.561-4.524 10.07-10.08 10.07-5.567 0-10.08-4.508-10.08-10.07V10.23zM14.68 44.8v11.341h2.88V44.8z"/>
        <path fill="#000" fill-rule="nonzero" d="M6.04 57.76H26.2v-2.88H6.04z"/>
    </g>
</svg>
