<?xml version="1.0" encoding="UTF-8"?>
<svg width="49px" height="76px" viewBox="0 0 49 76" version="1.1" xmlns="http://www.w3.org/2000/svg" xmlns:xlink="http://www.w3.org/1999/xlink">
    <!-- Generator: Sketch 49.1 (51147) - http://www.bohemiancoding.com/sketch -->
    <title>t-m</title>
    <desc>Created with Sketch.</desc>
    <defs></defs>
    <g id="IOS" stroke="none" stroke-width="1" fill="none" fill-rule="evenodd">
        <g id="1A-IOS" transform="translate(-989.000000, -1821.000000)" stroke="#858E99">
            <g id="Telegram-/-Input-Bar" transform="translate(0.000000, 1793.000000)">
                <g id="Telegram-/-Icon-/-Microphone" transform="translate(990.720000, 28.800000)">
                    <g>
                        <rect id="Rectangle-5" stroke-width="1.5" x="9.375" y="0.75" width="27.25" height="47.5384615" rx="13.625"></rect>
                        <path d="M11.5,72.1153846 C25.7903679,72.1153846 34.5,63.3766233 34.5,49.0384615 C34.5,34.7002998 25.7903679,25.9615385 11.5,25.9615385" id="Oval-3" stroke-width="1.5" transform="translate(23.000000, 49.038462) rotate(90.000000) translate(-23.000000, -49.038462) "></path>
                        <rect id="Rectangle-6" x="20.625" y="61.0769231" width="4.75" height="13.4230769"></rect>
                    </g>
                </g>
            </g>
        </g>
    </g>
</svg>