<?xml version="1.0" encoding="UTF-8"?>
<svg width="55px" height="51px" viewBox="0 0 55 51" version="1.1" xmlns="http://www.w3.org/2000/svg" xmlns:xlink="http://www.w3.org/1999/xlink">
    <!-- Generator: Sketch 46.2 (44496) - http://www.bohemiancoding.com/sketch -->
    <title>Shape</title>
    <desc>Created with Sketch.</desc>
    <defs></defs>
    <g id="Page-1" stroke="none" stroke-width="1" fill="none" fill-rule="evenodd">
        <g id="inst-single-post-ver.2" transform="translate(-47.000000, -1833.000000)" fill-rule="nonzero" fill="#262626">
            <g id="low-bar-new-insta" transform="translate(-6.000000, 1792.000000)">
                <g id="Group-5" transform="translate(53.000000, 37.000000)">
                    <g id="buttons">
                        <g id="Group-3">
                            <path d="M0,33.0555083 C0,31.6760894 0.742764009,29.7661248 1.69774631,28.8111425 L25.2539763,4.7243668 C26.2089586,3.76938451 27.8005958,3.76938451 28.7555781,4.7243668 L52.3118081,28.8111425 C53.2667904,29.7661248 54.0095544,31.6760894 54.0095544,33.0555083 L54.0095544,52.4734817 C54.0095544,53.8529005 52.9484629,54.913992 51.5690441,54.913992 L34.3793627,54.913992 C32.9999438,54.913992 31.9388524,53.7467914 31.9388524,52.4734817 L31.9388524,39.4220569 C31.9388524,39.4220569 32.4693981,32.84329 27.0578318,33.0555083 C21.6462654,32.84329 22.070702,39.4220569 22.070702,39.4220569 L22.070702,52.4734817 C22.070702,53.8529005 20.9035014,54.913992 19.6301917,54.913992 L2.44051032,54.913992 C1.06109144,54.913992 1.50790163e-14,53.8529005 1.50790163e-14,52.4734817 L1.50790163e-14,33.0555083 L0,33.0555083 Z" id="Shape"></path>
                        </g>
                    </g>
                </g>
            </g>
        </g>
    </g>
</svg>