<?xml version="1.0" encoding="UTF-8"?>
<svg width="38px" height="33px" viewBox="0 0 38 33" version="1.1" xmlns="http://www.w3.org/2000/svg" xmlns:xlink="http://www.w3.org/1999/xlink">
    <!-- Generator: Sketch 49.3 (51167) - http://www.bohemiancoding.com/sketch -->
    <title>like_off_5_</title>
    <desc>Created with Sketch.</desc>
    <defs></defs>
    <g id="Page-1" stroke="none" stroke-width="1" fill="none" fill-rule="evenodd">
        <g id="comment+branch" transform="translate(-959.000000, -1547.000000)" stroke="#262626" stroke-width="1.5548">
            <g transform="translate(-14.000000, 0.000000)" id="branch">
                <g transform="translate(188.000000, 1374.000000)">
                    <g id="comment_4_" transform="translate(2.000000, 119.000000)">
                        <g id="on_x2F_off_x5F_like_4_" transform="translate(784.000000, 55.000000)">
                            <path d="M8.7,23.8 C8.7,23.8 17.5,31 18,31 C18.4,31 27.4,23.5 27.4,23.5 C27.4,23.5 33.7,18.5 35.1,13.9 C37.2,7.1 33.1,0.1 26.5,0.1 C19.8,0.1 19.4,4.7 18.1,4.7 C16.8,4.7 15.3,0 9.5,0 C3.7,0 -2,7.1 1.1,15.4 C2.2,18.4 8.7,23.8 8.7,23.8 Z" id="like_off_5_"></path>
                        </g>
                    </g>
                </g>
            </g>
        </g>
    </g>
</svg>