<?xml version="1.0" encoding="utf-8"?>
<!-- Generator: Adobe Illustrator 19.0.0, SVG Export Plug-In . SVG Version: 6.00 Build 0)  -->
<svg version="1.1" id="Layer_1" xmlns="http://www.w3.org/2000/svg" xmlns:xlink="http://www.w3.org/1999/xlink" x="0px" y="0px"
	 viewBox="-293 386.3 24 20.7" style="enable-background:new -293 386.3 24 20.7;" xml:space="preserve">
<style type="text/css">
	.st0{fill:none;}
	.st1{fill:none; stroke: #828A99}
</style>
<title>like_active_24</title>
<desc>Created with Sketch.</desc>
<g id="Page-1">
	<g id="Newsfeed" transform="translate(-16.000000, -630.000000)">
		<g id="content" transform="translate(0.000000, 64.000000)">
			<g id="Post" transform="translate(0.000000, 176.000000)">
				<g id="Actions-Bar" transform="translate(0.000000, 378.000000)">
					<g id="Like">
						<g id="like_active_24" transform="translate(16.000000, 10.000000)">
							<rect id="bound" x="-293" y="386.4" class="st0" width="24" height="24"/>
							<path id="shape" class="st1" d="M-276,389.3c3.5,0,6.4,2.9,6.4,6.4c0,3.6-1.4,5.4-7.5,10l-2.8,2.2c-0.7,0.5-1.6,0.5-2.3,0
								l-2.8-2.2c-6-4.7-7.5-6.5-7.5-10c0-3.5,2.9-6.4,6.4-6.4c1.9,0,4,1.1,5,3.1C-280,390.4-277.9,389.3-276,389.3z"/>
						</g>
					</g>
				</g>
			</g>
		</g>
	</g>
</g>
</svg>
