<?xml version="1.0" encoding="UTF-8"?>
<svg width="24px" height="20px" viewBox="0 0 24 20" version="1.1" xmlns="http://www.w3.org/2000/svg" xmlns:xlink="http://www.w3.org/1999/xlink">
    <!-- Generator: Sketch 49.3 (51167) - http://www.bohemiancoding.com/sketch -->
    <title>like_active_24</title>
    <desc>Created with Sketch.</desc>
    <defs></defs>
    <g id="Page-1" stroke="none" stroke-width="1" fill="none" fill-rule="evenodd">
        <g id="Newsfeed" transform="translate(-16.000000, -630.000000)">
            <g id="content" transform="translate(0.000000, 64.000000)">
                <g id="Post" transform="translate(0.000000, 176.000000)">
                    <g id="Actions-Bar" transform="translate(0.000000, 378.000000)">
                        <g id="Like">
                            <g id="like_active_24" transform="translate(16.000000, 10.000000)">
                                <rect id="bound" opacity="0.4" x="0" y="0" width="24" height="24"></rect>
                                <path d="M16.9736842,2.90004879 C20.5228404,2.90004879 23.4,5.77720839 23.4,9.32636462 C23.4,12.8975292 21.9703977,14.6865477 15.9453763,19.3726755 L13.1664872,21.5340337 C12.4803773,22.0676747 11.5196227,22.0676747 10.8335128,21.5340337 L8.05462372,19.3726755 C2.0296023,14.6865477 0.599999964,12.8975292 0.599999964,9.32636462 C0.599999964,5.77720839 3.47715956,2.90004879 7.02631579,2.90004879 C8.89927149,2.90004879 11,4 12,6 C13,4 15.1007285,2.90004879 16.9736842,2.90004879 Z" id="shape" fill="#FF3347" fill-rule="nonzero"></path>
                            </g>
                        </g>
                    </g>
                </g>
            </g>
        </g>
    </g>
</svg>