<?xml version="1.0" encoding="UTF-8"?>
<svg width="61px" height="44px" viewBox="0 0 61 44" version="1.1" xmlns="http://www.w3.org/2000/svg" xmlns:xlink="http://www.w3.org/1999/xlink">
    <!-- Generator: Sketch 49.1 (51147) - http://www.bohemiancoding.com/sketch -->
    <title>Page 1 Copy 6</title>
    <desc>Created with Sketch.</desc>
    <defs></defs>
    <g id="IOS" stroke="none" stroke-width="1" fill="none" fill-rule="evenodd">
        <g id="8A.-Newsfeed-Copy-2" transform="translate(-396.000000, -421.000000)" fill="#6A747F">
            <g id="Group-7" transform="translate(7.000000, 191.000000)">
                <g id="under-post-FB" transform="translate(236.000000, 229.000000)">
                    <g id="Group-6-Copy">
                        <path d="M163.628789,7.68379499 L155.369469,17.2727795 L153,15.1670425 L165.203462,0.999797914 L177.405929,15.1670425 L175.037454,17.2727795 L166.777139,7.68379499 L166.777139,33.8074625 C166.777139,36.456811 168.89096,38.6039756 171.499167,38.6039756 L188.814594,38.6039756 L188.814594,41.8019878 L171.499167,41.8019878 C167.152156,41.8019878 163.628789,38.2230433 163.628789,33.8074625 L163.628789,7.68379499 Z M203.370614,38.3160029 L211.629934,28.7280289 L213.999403,30.8337658 L201.796936,45 L189.593475,30.8337658 L191.962944,28.7280289 L200.222264,38.3160029 L200.222264,12.1923354 C200.222264,9.54298692 198.108443,7.39582233 195.500236,7.39582233 L178.18481,7.39582233 L178.18481,4.19781012 L195.500236,4.19781012 C199.847247,4.19781012 203.370614,7.77675459 203.370614,12.1923354 L203.370614,38.3160029 Z" id="Page-1-Copy-6"></path>
                    </g>
                </g>
            </g>
        </g>
    </g>
</svg>