<?xml version="1.0" encoding="UTF-8"?>
<svg width="52px" height="48px" viewBox="0 0 52 48" version="1.1" xmlns="http://www.w3.org/2000/svg" xmlns:xlink="http://www.w3.org/1999/xlink">
    <!-- Generator: Sketch 49.1 (51147) - http://www.bohemiancoding.com/sketch -->
    <title>Group 8</title>
    <desc>Created with Sketch.</desc>
    <defs></defs>
    <g id="IOS" stroke="none" stroke-width="1" fill="none" fill-rule="evenodd">
        <g id="8A.-Newsfeed-Copy-2" transform="translate(-830.000000, -418.000000)">
            <g id="Group-7" transform="translate(7.000000, 191.000000)">
                <g id="under-post-FB" transform="translate(236.000000, 229.000000)">
                    <g id="Group-6-Copy">
                        <g id="Group-6" transform="translate(589.000000, 0.000000)">
                            <g id="Group-8">
                                <path d="M9.8,0 L38.3,0 C43.5,0 47.8,4.3 47.8,9.5 L47.8,34.8 C47.8,40 43.5,44.3 38.3,44.3 L9.8,44.3 C4.6,44.3 0.3,40 0.3,34.8 L0.3,9.5 C0.3,4.3 4.5,0 9.8,0 Z" id="Shape" stroke="#6A747F" stroke-width="2.7402"></path>
                                <path d="M2,8.633 L19.672,20.415 C20.791,21.16 22.105,21.558 23.449,21.558 C24.793,21.558 26.107,21.16 27.226,20.415 L44.898,8.633 L43.143,6 L25.47,17.781 C24.872,18.18 24.168,18.393 23.449,18.393 C22.73,18.393 22.026,18.18 21.428,17.781 L3.756,6 L2,8.633 Z" id="Fill-1" fill="#6A747F"></path>
                            </g>
                        </g>
                    </g>
                </g>
            </g>
        </g>
    </g>
</svg>