<?xml version="1.0" encoding="UTF-8"?>
<svg width="55px" height="55px" viewBox="0 0 55 55" version="1.1" xmlns="http://www.w3.org/2000/svg" xmlns:xlink="http://www.w3.org/1999/xlink">
    <!-- Generator: Sketch 49.1 (51147) - http://www.bohemiancoding.com/sketch -->
    <title>Plus</title>
    <desc>Created with Sketch.</desc>
    <defs></defs>
    <g id="IOS" stroke="none" stroke-width="1" fill="none" fill-rule="evenodd">
        <g id="Chat-W" transform="translate(-42.000000, -1957.000000)" fill="#ffffff">
            <g id="Chat-Bar" transform="translate(0.000000, 1920.000000)">
                <path d="M65.1578947,60.1578947 L65.1578947,39.8796007 C65.1578947,38.2892412 66.4427666,37 68.0356703,37 L68.0695928,37 C69.6589444,37 70.9473684,38.2919088 70.9473684,39.8796007 L70.9473684,60.1578947 L94.1203993,60.1578947 C95.7107588,60.1578947 97,61.4427666 97,63.0356703 L97,63.0695928 C97,64.6589444 95.7080912,65.9473684 94.1203993,65.9473684 L70.9473684,65.9473684 L70.9473684,89.1203993 C70.9473684,90.7107588 69.6624966,92 68.0695928,92 L68.0356703,92 C66.4463188,92 65.1578947,90.7080912 65.1578947,89.1203993 L65.1578947,65.9473684 L44.8796007,65.9473684 C43.2892412,65.9473684 42,64.6624966 42,63.0695928 L42,63.0356703 C42,61.4463188 43.2919088,60.1578947 44.8796007,60.1578947 L65.1578947,60.1578947 Z" id="Plus"></path>
            </g>
        </g>
    </g>
</svg>