<?xml version="1.0" encoding="UTF-8"?>
<svg width="44px" height="41px" viewBox="0 0 44 41" version="1.1" xmlns="http://www.w3.org/2000/svg" xmlns:xlink="http://www.w3.org/1999/xlink">
    <!-- Generator: Sketch 46.2 (44496) - http://www.bohemiancoding.com/sketch -->
    <title>Group 12</title>
    <desc>Created with Sketch.</desc>
    <defs></defs>
    <g id="Page-1" stroke="none" stroke-width="1" fill="none" fill-rule="evenodd">
        <g id="TWITTER-ver-2" transform="translate(-884.000000, -2740.000000)" fill-rule="nonzero" fill="#8F9295">
            <g id="Group-10-Copy" transform="translate(8.000000, 1679.000000)">
                <g id="Group-7-Copy">
                    <g id="Group-4">
                        <g id="2">
                            <g id="Group-5" transform="translate(0.000000, 42.000000)">
                                <g id="Group-9" transform="translate(234.000000, 1018.000000)">
                                    <g id="Group-12" transform="translate(642.000000, 1.000000)">
                                        <path d="M42.7393888,22.1682905 C42.0390492,22.1682905 41.4787776,22.6731621 41.4787776,23.3042516 L41.4787776,33.6372896 C41.4787776,36.4477414 38.9388795,38.7280779 35.8293718,38.7280779 L8.17062818,38.7280779 C5.05178268,38.7280779 2.52122241,36.4393268 2.52122241,33.6372896 L2.52122241,23.135961 C2.52122241,22.5048716 1.96095076,22 1.26061121,22 C0.560271647,22 0,22.5048716 0,23.135961 L0,33.6372896 C0,37.7015058 3.66977929,41 8.17062818,41 L35.8293718,41 C40.3395586,41 44,37.6930912 44,33.6372896 L44,23.3042516 C44,22.6815766 43.4397284,22.1682905 42.7393888,22.1682905 Z" id="Shape"></path>
                                        <path d="M21.2388623,26.6761619 C21.4482759,26.8866567 21.7301787,27 22.0040272,27 C22.2778757,27 22.5597785,26.8947526 22.769192,26.6761619 L33.6798389,15.7298351 C34.1067204,15.3007496 34.1067204,14.6125937 33.6798389,14.1835082 C33.2529575,13.7544228 32.5683363,13.7544228 32.1414548,14.1835082 L23.0913667,23.2677661 L23.0913667,1.09295352 C23.0913667,0.485757121 22.6081047,0 22.0040272,0 C21.3999497,0 20.9166876,0.485757121 20.9166876,1.09295352 L20.9166876,23.2677661 L10.8585452,14.1835082 C10.4316637,13.7544228 9.74704254,13.7544228 9.32016109,14.1835082 C8.89327964,14.6125937 8.89327964,15.3007496 9.32016109,15.7298351 L21.2388623,26.6761619 Z" id="Shape" transform="translate(21.500000, 13.500000) rotate(-180.000000) translate(-21.500000, -13.500000) "></path>
                                    </g>
                                </g>
                            </g>
                        </g>
                    </g>
                </g>
            </g>
        </g>
    </g>
</svg>