<?xml version="1.0" encoding="UTF-8"?>
<svg width="24px" height="46px" viewBox="0 0 24 46" version="1.1" xmlns="http://www.w3.org/2000/svg" xmlns:xlink="http://www.w3.org/1999/xlink">
    <!-- Generator: Sketch 49.3 (51167) - http://www.bohemiancoding.com/sketch -->
    <title>Group 8</title>
    <desc>Created with Sketch.</desc>
    <defs></defs>
    <g id="android" stroke="none" stroke-width="1" fill="none" fill-rule="evenodd">
        <g id="Android---Tasker-2" transform="translate(-54.000000, -310.000000)" fill="#AFAFAF">
            <g id="Group-3" transform="translate(54.000000, 302.000000)">
                <g id="Group-8" transform="translate(0.000000, 8.000000)">
                    <g id="Group-2">
                        <circle id="Oval-2" cx="5" cy="41" r="5"></circle>
                        <circle id="Oval-2-Copy" cx="5" cy="23" r="5"></circle>
                        <circle id="Oval-2-Copy-2" cx="5" cy="5" r="5"></circle>
                    </g>
                    <g id="Group-2-Copy" transform="translate(14.000000, 0.000000)">
                        <circle id="Oval-2" cx="5" cy="41" r="5"></circle>
                        <circle id="Oval-2-Copy" cx="5" cy="23" r="5"></circle>
                        <circle id="Oval-2-Copy-2" cx="5" cy="5" r="5"></circle>
                    </g>
                </g>
            </g>
        </g>
    </g>
</svg>