<?xml version="1.0" encoding="UTF-8"?>
<svg width="42px" height="57px" viewBox="0 0 42 57" version="1.1" xmlns="http://www.w3.org/2000/svg" xmlns:xlink="http://www.w3.org/1999/xlink">
    <!-- Generator: Sketch 49.1 (51147) - http://www.bohemiancoding.com/sketch -->
    <title>Speak</title>
    <desc>Created with Sketch.</desc>
    <defs></defs>
    <g id="android" stroke="none" stroke-width="1" fill="none" fill-rule="evenodd" opacity="0.5">
        <g id="1A-android-Copy" transform="translate(-204.000000, -1800.000000)" fill="#000000">
            <g id="Android-L-Keyboard-Light-MDPI-Copy" transform="translate(0.000000, 1248.000000)">
                <path d="M225,588 C230.1,588 234,584.1 234,579 L234,561 C234,555.9 230.1,552 225,552 C219.9,552 216,555.9 216,561 L216,579 C216,584.1 219.9,588 225,588 L225,588 Z M240.9,579 C240.9,588 233.4,594.3 225,594.3 C216.6,594.3 209.1,588 209.1,579 L204,579 C204,589.2 212.1,597.6 222,599.1 L222,609 L228,609 L228,599.1 C237.9,597.6 246,589.2 246,579 L240.9,579 L240.9,579 Z" id="Speak"></path>
            </g>
        </g>
    </g>
</svg>