<?xml version="1.0" encoding="UTF-8"?>
<svg width="44px" height="44px" viewBox="0 0 44 44" version="1.1" xmlns="http://www.w3.org/2000/svg" xmlns:xlink="http://www.w3.org/1999/xlink">
    <!-- Generator: Sketch 46.2 (44496) - http://www.bohemiancoding.com/sketch -->
    <title>Shape</title>
    <desc>Created with Sketch.</desc>
    <defs></defs>
    <g id="Page-1" stroke="none" stroke-width="1" fill="none" fill-rule="evenodd">
        <g id="7С---iOS-" transform="translate(-909.000000, -86.000000)" stroke-width="0.5" stroke="#007AFF" fill="#007AFF" fill-rule="nonzero">
            <g id="Group" transform="translate(910.000000, 87.000000)">
                <g id="phone-call">
                    <path d="M34.2498638,42.6143754 C32.4768304,42.6143754 30.3354304,42.1700421 27.9804638,41.2813754 C22.8175971,39.3349088 17.2003638,35.4878421 12.1636304,30.4511088 C7.12546378,25.4129421 3.27839712,19.7942754 1.33049712,14.6314088 C-0.439669551,9.93724211 -0.443969551,6.08444211 1.32046378,4.32144211 C1.57416378,4.06774211 1.83216378,3.79540878 2.09876378,3.51447545 C3.70839712,1.82170878 5.52729712,-0.0831912191 7.93816378,0.00280878092 C9.59939712,0.0716087809 11.2090304,1.10360878 12.8573638,3.15470878 C17.7278304,9.21197545 15.5319638,11.3705754 12.9906638,13.8731754 L12.5420304,14.3175088 C12.1263638,14.7331754 11.3408971,16.6581421 18.6480304,23.9652754 C21.0330971,26.3503421 23.0669971,28.0961421 24.6923971,29.1525088 C25.7157971,29.8175754 27.5461638,30.8237754 28.2972304,30.0727088 L28.7487304,29.6169088 C31.2484638,27.0813421 33.4070638,24.8926421 39.4600304,29.7588088 C41.5111304,31.4071421 42.5416971,33.0153421 42.6104971,34.6794421 C42.7093971,37.0888754 40.7901638,38.9120754 39.0959638,40.5202754 C38.8164638,40.7868754 38.5441304,41.0448754 38.2904304,41.2971421 C37.4146638,42.1743421 36.0142971,42.6143754 34.2498638,42.6143754 Z M7.76616378,1.43327545 C6.05333045,1.43327545 4.50676378,3.06154211 3.13793045,4.50204211 C2.86273045,4.79157545 2.59613045,5.07250878 2.33383045,5.33480878 C1.01946378,6.64774211 1.15276378,10.0977754 2.67209712,14.1268754 C4.54976378,19.1034088 8.28073045,24.5414754 13.1784304,29.4391754 C18.0746971,34.3340088 23.5098971,38.0649754 28.4878638,39.9412088 C32.5169638,41.4634088 35.9669971,41.5924088 37.2784971,40.2809088 C37.5407971,40.0186088 37.8217304,39.7520088 38.1112638,39.4782421 C39.5832971,38.0793088 41.2531304,36.4940421 41.1800304,34.7353421 C41.1298638,33.5270421 40.2497971,32.2270088 38.5641971,30.8725088 C33.5202971,26.8161754 32.1098971,28.2480754 29.7706971,30.6202421 L29.3120304,31.0832088 C28.1940304,32.2026421 26.3779971,31.9546754 23.9126638,30.3522088 C22.2026971,29.2399421 20.0899638,27.4310754 17.6360971,24.9757754 C11.5716638,18.9127754 9.63236378,15.2018754 11.5300971,13.2998421 L11.9873304,12.8483421 C14.3652304,10.5091421 15.7999971,9.09730878 11.7422304,4.05054211 C10.3848638,2.36637545 9.08626378,1.48630878 7.87796378,1.43470878 C7.84069712,1.43327545 7.80343045,1.43327545 7.76616378,1.43327545 Z" id="Shape"></path>
                </g>
            </g>
        </g>
    </g>
</svg>