<?xml version="1.0" encoding="UTF-8"?>
<svg width="56px" height="52px" viewBox="0 0 56 52" version="1.1" xmlns="http://www.w3.org/2000/svg" xmlns:xlink="http://www.w3.org/1999/xlink">
    <!-- Generator: Sketch 49.1 (51147) - http://www.bohemiancoding.com/sketch -->
    <title>send button</title>
    <desc>Created with Sketch.</desc>
    <defs></defs>
    <g id="android" stroke="none" stroke-width="1" fill="none" fill-rule="evenodd">
        <g id="1A-android-Copy-2" transform="translate(-976.000000, -1157.000000)" fill="#007AFF">
            <polygon id="send-button" points="976 1187.70868 1012.33917 1182.45004 1012.33917 1182.09294 976 1178.58383 976 1157 1031.66389 1182.89669 976 1209"></polygon>
        </g>
    </g>
</svg>