<?xml version="1.0" encoding="UTF-8"?>
<svg width="67px" height="64px" viewBox="0 0 67 64" version="1.1" xmlns="http://www.w3.org/2000/svg" xmlns:xlink="http://www.w3.org/1999/xlink">
    <!-- Generator: Sketch 49.1 (51147) - http://www.bohemiancoding.com/sketch -->
    <title>smile</title>
    <desc>Created with Sketch.</desc>
    <defs></defs>
    <g id="android" stroke="none" stroke-width="1" fill="none" fill-rule="evenodd">
        <g id="1A-android" transform="translate(-42.000000, -1825.000000)">
            <g id="smile" transform="translate(44.000000, 1827.000000)">
                <g id="Group-4">
                    <circle id="Oval-4" stroke="#979797" stroke-width="4" cx="30" cy="30" r="30"></circle>
                    <g id="Group-5" transform="translate(17.014925, 15.223881)">
                        <path d="M-0.427274894,22.3880597 L27.1666871,22.3880597 C25.8263653,27.9395785 21.4232711,30.8388961 13.9574044,31.0860124 C6.48802573,31.3332449 1.69313264,28.4339273 -0.427274894,22.3880597 Z" id="Path-2" stroke="#979797" stroke-width="3.5" fill="#F9F9FA"></path>
                        <g id="Group-3" fill="#979797">
                            <ellipse id="Oval-5" cx="3.58208955" cy="6.26865672" rx="3.58208955" ry="6.26865672"></ellipse>
                            <ellipse id="Oval-5-Copy" cx="23.2835821" cy="6.26865672" rx="3.58208955" ry="6.26865672"></ellipse>
                        </g>
                    </g>
                </g>
                <circle id="Oval-7" fill="#61B0EB" cx="55" cy="11" r="10"></circle>
            </g>
        </g>
    </g>
</svg>