<?xml version="1.0" encoding="UTF-8"?>
<svg width="80px" height="59px" viewBox="0 0 80 59" version="1.1" xmlns="http://www.w3.org/2000/svg" xmlns:xlink="http://www.w3.org/1999/xlink">
    <!-- Generator: Sketch 49.1 (51147) - http://www.bohemiancoding.com/sketch -->
    <title>Take or Send Photo or Video Button</title>
    <desc>Created with Sketch.</desc>
    <defs></defs>
    <g id="Page-1" stroke="none" stroke-width="1" fill="none" fill-rule="evenodd">
        <g id="7-8---SMS-[iOS]" transform="translate(-55.000000, -1203.000000)" fill="#858E98">
            <g id="Tapback">
                <g id="Toolbar" transform="translate(0.000000, 1169.221889)">
                    <path d="M117.416,53.0549598 L117.384,53.0549598 C116.5088,53.0549598 115.8,52.3515728 115.8,51.4846444 L115.8,51.451301 C115.8,50.5827848 116.5088,49.8793978 117.384,49.8793978 L117.416,49.8793978 C118.2912,49.8793978 119,50.5827848 119,51.451301 L119,51.4846444 C119,52.3515728 118.2912,53.0549598 117.416,53.0549598 Z M95,81.6350178 C87.0470996,81.6350178 80.6,75.2371539 80.6,67.3449888 C80.6,59.4528237 87.0470996,53.0549598 95,53.0549598 C102.9529,53.0549598 109.4,59.4528237 109.4,67.3449888 C109.4,75.2371539 102.9529,81.6350178 95,81.6350178 Z M130.2,43.5282738 L115.912,43.5282738 C114.8416,43.5282738 113.8432,42.9979549 113.2496,42.1135609 L108.7504,35.4147129 C108.1568,34.5319066 107.1584,34 106.088,34 L83.9136,34 C82.8432,34 81.8448,34.5319066 81.2512,35.4147129 L76.752,42.1135609 C76.1584,42.9979549 75.16,43.5282738 74.0896,43.5282738 L59.8,43.5282738 C57.1488,43.5282738 55,45.6622514 55,48.2916168 L55,87.9861418 C55,90.6170949 57.1488,92.7494848 59.8,92.7494848 L130.2,92.7494848 C132.8512,92.7494848 135,90.6170949 135,87.9861418 L135,48.2916168 C135,45.6622514 132.8512,43.5282738 130.2,43.5282738 L130.2,43.5282738 Z M95,86.3983608 C84.4128,86.3983608 75.8,77.8513357 75.8,67.3449888 C75.8,56.8402297 84.4128,48.2916168 95,48.2916168 C105.5872,48.2916168 114.2,56.8402297 114.2,67.3449888 C114.2,77.8513357 105.5856,86.3983608 95,86.3983608 Z M64.6,37.1771498 L71,37.1771498 L71,40.3527118 L64.6,40.3527118 L64.6,37.1771498 Z" id="Take-or-Send-Photo-or-Video-Button"></path>
                </g>
            </g>
        </g>
    </g>
</svg>