<?xml version="1.0" encoding="UTF-8"?>
<svg width="30px" height="30px" viewBox="0 0 30 30" version="1.1" xmlns="http://www.w3.org/2000/svg" xmlns:xlink="http://www.w3.org/1999/xlink">
    <!-- Generator: Sketch 49.3 (51167) - http://www.bohemiancoding.com/sketch -->
    <title>globe_5_</title>
    <desc>Created with Sketch.</desc>
    <defs></defs>
    <g id="Page-1" stroke="none" stroke-width="1" fill="none" fill-rule="evenodd">
        <g id="fb-newsfeed-ver-2" transform="translate(-633.000000, -872.000000)" fill="#616770" fill-rule="nonzero">
            <g id="Group-8" transform="translate(-1.000000, 699.000000)">
                <path d="M648.9,173 C640.681959,173 634,179.681959 634,187.9 C634,196.118041 640.681959,202.799999 648.9,202.799999 C657.118041,202.799999 663.799999,196.118041 663.799999,187.9 C663.799999,179.681959 657.118041,173 648.9,173 Z M648.9,174.920103 C649.360824,174.920103 649.744845,174.920103 650.20567,174.996907 C648.515979,175.61134 648.208763,177.608247 647.133505,177.915464 C646.211855,178.145876 644.982989,178.299484 643.907732,178.299484 C642.832474,178.299484 640.681959,178.760309 640.989175,179.605154 C641.373196,180.603608 642.371649,179.912371 643.062886,180.296392 C643.754123,180.680412 643.370103,181.448453 643.600515,181.909278 C644.138144,183.06134 648.055154,181.371649 650.973711,182.062886 C654.045876,182.830928 655.505154,186.671134 656.426804,187.055154 C657.348453,187.439175 658.500515,187.746391 658.193298,188.975257 C657.809278,190.664948 656.964432,190.280927 656.887628,191.356185 C656.810824,192.354639 656.273195,193.967525 654.737113,194.505154 C653.277835,195.119587 651.434536,197.807731 649.975257,198.038144 C648.515979,198.268556 647.747938,199.343814 648.362371,200.111855 C648.592783,200.419071 649.053608,200.726288 649.437628,201.110309 C649.28402,201.110309 649.053608,201.110309 648.9,201.110309 C648.055154,201.110309 647.210309,201.033504 646.365464,200.879896 C646.058247,200.57268 645.751031,200.265463 645.597422,200.035051 C645.136598,199.420618 644.752577,198.34536 645.443814,197.116494 C646.135051,195.964432 646.365464,195.273195 646.442268,193.813917 C646.595876,190.664948 642.141237,191.125773 642.678866,187.515979 C642.909278,186.133505 644.291752,184.520618 643.370103,184.290206 C641.987629,183.982989 641.526804,182.293299 640.605154,182.293299 C639.683505,182.293299 638.761856,182.062886 638.301031,181.141237 C638.224227,180.987629 638.224227,180.910825 638.224227,180.757216 C640.451546,177.147423 644.445361,174.920103 648.9,174.920103 Z" id="globe_5_"></path>
            </g>
        </g>
    </g>
</svg>