<?xml version="1.0" encoding="UTF-8"?>
<svg width="78px" height="78px" viewBox="0 0 78 78" version="1.1" xmlns="http://www.w3.org/2000/svg" xmlns:xlink="http://www.w3.org/1999/xlink">
    <!-- Generator: Sketch 49.3 (51167) - http://www.bohemiancoding.com/sketch -->
    <title>almum</title>
    <desc>Created with Sketch.</desc>
    <defs></defs>
    <g id="Page-1" stroke="none" stroke-width="1" fill="none" fill-rule="evenodd">
        <g id="fb-ver.2" transform="translate(-44.000000, -5201.000000)">
            <g id="user-page-(2)">
                <g id="tech" transform="translate(2.000000, 1316.000000)">
                    <g id="alboms2" transform="translate(42.000000, 3885.000000)">
                        <g id="almum">
                            <g id="photo_9_" fill="#69CEBC" fill-rule="nonzero">
                                <circle id="Oval" cx="39.2" cy="39.1" r="38.8"></circle>
                            </g>
                            <polygon id="Shape" fill="#FFFFFF" fill-rule="nonzero" points="40.4 38.1 21.2 26.2 39.6 15.1 58.8 27"></polygon>
                            <polyline id="Shape" stroke="#FFFFFF" stroke-width="4" points="58 34.9 40.4 45.6 22 34.2"></polyline>
                            <polyline id="Shape" stroke="#FFFFFF" stroke-width="4" points="58 44.9 40.4 55.6 22 44.2"></polyline>
                        </g>
                    </g>
                </g>
            </g>
        </g>
    </g>
</svg>