<?xml version="1.0" encoding="UTF-8"?>
<svg width="78px" height="78px" viewBox="0 0 78 78" version="1.1" xmlns="http://www.w3.org/2000/svg" xmlns:xlink="http://www.w3.org/1999/xlink">
    <!-- Generator: Sketch 49.3 (51167) - http://www.bohemiancoding.com/sketch -->
    <title>cloud</title>
    <desc>Created with Sketch.</desc>
    <defs></defs>
    <g id="Page-1" stroke="none" stroke-width="1" fill="none" fill-rule="evenodd">
        <g id="fb-ver.2" transform="translate(-44.000000, -5363.000000)" fill-rule="nonzero">
            <g id="user-page-(2)">
                <g id="tech" transform="translate(2.000000, 1316.000000)">
                    <g id="you_know" transform="translate(42.000000, 4047.000000)">
                        <g id="cloud">
                            <g id="photo_11_" fill="#F67948">
                                <circle id="Oval" cx="39.2" cy="39.1" r="38.8"></circle>
                            </g>
                            <path d="M59.8,29.4 C60,28.8 60,28.1 60,27.5 C60,23.1 56.4,19.5 52,19.5 C51.3,19.5 50.7,19.6 50.1,19.7 C48.8,17.2 46.1,15.5 43,15.5 C39.8,15.5 37.1,17.4 35.8,20.1 C34.5,19.1 32.8,18.5 31,18.5 C26.9,18.5 23.5,21.6 23.1,25.6 C19.1,26.1 16,29.4 16,33.5 C16,36 17.2,38.3 19.1,39.8 C19,40.4 18.9,40.9 18.9,41.5 C18.9,45.5 22.1,48.7 26.1,48.7 C26.1,48.7 26.2,48.7 26.2,48.7 C26.8,52.6 30.1,55.5 34.1,55.5 C37.1,55.5 39.7,53.8 41.1,51.4 C42.3,52.1 43.7,52.5 45.1,52.5 C49.5,52.5 53.1,48.9 53.1,44.5 C53.1,44.3 53.1,44.1 53.1,43.9 C54,44.3 55.1,44.5 56.1,44.5 C60.5,44.5 64.1,40.9 64.1,36.5 C64,33.4 62.3,30.7 59.8,29.4 Z" id="Shape" fill="#FFFFFF"></path>
                            <circle id="Oval" fill="#FFFFFF" cx="20.7" cy="58.1" r="4.8"></circle>
                        </g>
                    </g>
                </g>
            </g>
        </g>
    </g>
</svg>