<?xml version="1.0" encoding="UTF-8"?>
<svg width="78px" height="84px" viewBox="0 0 78 84" version="1.1" xmlns="http://www.w3.org/2000/svg" xmlns:xlink="http://www.w3.org/1999/xlink">
    <!-- Generator: Sketch 49.3 (51167) - http://www.bohemiancoding.com/sketch -->
    <title>Group</title>
    <desc>Created with Sketch.</desc>
    <defs></defs>
    <g id="IOS" stroke="none" stroke-width="1" fill="none" fill-rule="evenodd">
        <g id="7-32---FACEBOOK---[iOS]---Новый-пост-на-чужой-странице2" transform="translate(-715.000000, -1150.000000)" fill="#558DFF">
            <g id="low_x5F_bar" transform="translate(-10.000000, 1022.000000)">
                <g id="Group" transform="translate(725.000000, 128.000000)">
                    <path d="M31.3,45.9 C15.7,45.9 5.1,51.9 2.1,62.4 C1.2,65.7 0.6,69.4 0.5,73.5 C0.4,75.9 1.7,78.3 3.8,79.6 C7.9,82.2 19.3,83.5 30.8,83.5 C42.7,83.5 54.7,82.1 58.9,79.4 C61,78 62.2,75.7 62.1,73.1 C61.9,69.1 61.4,65.5 60.5,62.3 C57.5,51.9 46.8,45.9 31.3,45.9 Z" id="Shape" fill-rule="nonzero"></path>
                    <path d="M31.3,41.9 C42.2,41.9 50.2,33.1 50.2,21 C50.2,7.9 43.1,0.1 31.3,0.1 C19.5,0.1 12.4,7.9 12.4,21 C12.4,33.1 20.3,41.9 31.3,41.9 Z" id="Shape" fill-rule="nonzero"></path>
                    <path d="M66.4,12 L77.6,23.2 C78,23.6 78,24.3 77.6,24.7 L68.7,33.6 C68.3,34 67.6,34 67.2,33.6 L56,22.4 C55.8,22.2 55.7,21.9 55.7,21.6 L56,13.2 C56,12.6 56.5,12 57.2,12 L65.6,11.7 C65.9,11.7 66.2,11.8 66.4,12 Z M61.5,17.6 C62.3,16.8 62.3,15.5 61.5,14.6 C60.7,13.8 59.4,13.8 58.5,14.6 C57.7,15.4 57.7,16.7 58.5,17.6 C59.4,18.5 60.7,18.5 61.5,17.6 Z" id="tag_8_"></path>
                </g>
            </g>
        </g>
    </g>
</svg>