<?xml version="1.0" encoding="UTF-8"?>
<svg width="49px" height="56px" viewBox="0 0 49 56" version="1.1" xmlns="http://www.w3.org/2000/svg" xmlns:xlink="http://www.w3.org/1999/xlink">
    <!-- Generator: Sketch 49.3 (51167) - http://www.bohemiancoding.com/sketch -->
    <title>add</title>
    <desc>Created with Sketch.</desc>
    <defs></defs>
    <g id="android" stroke="none" stroke-width="1" fill="none" fill-rule="evenodd" stroke-linecap="round">
        <g id="chat-copy" transform="translate(-47.000000, -1833.000000)" stroke="#9DA5AE" stroke-width="4.854">
            <g id="chat" transform="translate(-7.000000, -1.000000)">
                <g id="lowest_bar_1_" transform="translate(1.000000, 1792.000000)">
                    <path d="M84.3,59.6 L68.1,75.8 C66,77.9 66,81.3 68.1,83.4 L68.2,83.5 C70.3,85.6 73.7,85.6 75.8,83.5 L92,67.3 L96,63.3 C100.2,59.1 100.2,52.2 96,48 L95.8,47.8 C91.6,43.6 84.7,43.6 80.5,47.8 L63.5,64.8 L60.7,67.6 C54.4,73.9 54.4,84 60.7,90.2 L60.9,90.4 C67.2,96.7 77.3,96.7 83.5,90.4 L95.8,78.1" id="add"></path>
                </g>
            </g>
        </g>
    </g>
</svg>