<?xml version="1.0" encoding="UTF-8"?>
<svg width="57px" height="58px" viewBox="0 0 57 58" version="1.1" xmlns="http://www.w3.org/2000/svg" xmlns:xlink="http://www.w3.org/1999/xlink">
    <!-- Generator: Sketch 49.3 (51167) - http://www.bohemiancoding.com/sketch -->
    <title>smile</title>
    <desc>Created with Sketch.</desc>
    <defs></defs>
    <g id="android" stroke="none" stroke-width="1" fill="none" fill-rule="evenodd">
        <g id="chat-copy" transform="translate(-853.000000, -1832.000000)">
            <g id="chat" transform="translate(-7.000000, -1.000000)">
                <g id="lowest_bar_1_" transform="translate(1.000000, 1792.000000)">
                    <g id="smile" transform="translate(861.000000, 44.000000)">
                        <circle id="Oval" stroke="#AAAEB3" stroke-width="5" cx="26.5" cy="26.2" r="25.8"></circle>
                        <circle id="Oval" fill="#AAAEB3" fill-rule="nonzero" cx="17.5" cy="21.4" r="3.4"></circle>
                        <circle id="Oval" fill="#AAAEB3" fill-rule="nonzero" cx="35" cy="21.4" r="3.4"></circle>
                        <path d="M37,33.6 C34.7,36.9 30.8,39 26.5,39 C22.2,39 18.4,36.9 16.1,33.6" id="Shape" stroke="#A1A8B0" stroke-width="4" stroke-linecap="round"></path>
                    </g>
                </g>
            </g>
        </g>
    </g>
</svg>