<?xml version="1.0" encoding="UTF-8"?>
<svg width="56px" height="56px" viewBox="0 0 56 56" version="1.1" xmlns="http://www.w3.org/2000/svg" xmlns:xlink="http://www.w3.org/1999/xlink">
    <!-- Generator: Sketch 46.2 (44496) - http://www.bohemiancoding.com/sketch -->
    <title>Shape</title>
    <desc>Created with Sketch.</desc>
    <defs></defs>
    <g id="Page-1" stroke="none" stroke-width="1" fill="none" fill-rule="evenodd" stroke-linecap="round" stroke-linejoin="round">
        <g id="inst-ver.2" transform="translate(-133.000000, -2018.000000)" stroke="#212121" stroke-width="3">
            <g id="Lenta-usera" transform="translate(-8.000000, 77.000000)">
                <g id="Group-3" transform="translate(6.000000, 727.000000)">
                    <g id="post">
                        <g id="Group-2" transform="translate(28.000000, 1215.000000)">
                            <g id="like-comment-share" transform="translate(2.000000, 0.000000)">
                                <path d="M133.3,52.9 C138.8,52.9 143.8,51.2 148,48.3 C149.4,47.4 158.7,51.7 158.7,51.7 C158.7,51.7 154.3,42.3 155.3,40.8 C157.8,36.8 159.3,32 159.3,26.9 C159.3,12.6 147.7,0.9 133.3,0.9 C119,0.9 107.3,12.5 107.3,26.9 C107.4,41.3 119,52.9 133.3,52.9 Z" id="Shape"></path>
                            </g>
                        </g>
                    </g>
                </g>
            </g>
        </g>
    </g>
</svg>