
<svg width="9px" height="41px" viewBox="0 0 9 41" version="1.1" xmlns="http://www.w3.org/2000/svg" xmlns:xlink="http://www.w3.org/1999/xlink">
    <!-- Generator: Sketch 46.2 (44496) - http://www.bohemiancoding.com/sketch -->
    <desc>Created with Sketch.</desc>
    <defs></defs>
    <g id="Page-1" stroke="none" stroke-width="1" fill="none" fill-rule="evenodd">
        <g id="inst-ver.2" transform="translate(-1027.000000, -88.000000)" fill="#262626">
            <g id="Lenta-usera" transform="translate(-6.000000, 77.000000)">
                <g id="User_top_bar">
                    <g id="bg_1_">
                        <g id="Group-4" transform="translate(45.000000, 0.000000)">
                            <g id="tech" transform="translate(677.000000, 8.000000)">
                                <g id="Group" transform="translate(311.000000, 3.000000)">
                                    <g id="Dots_5_">
                                        <path d="M0.9,4.8 C0.9,2.6 2.7,0.8 4.9,0.8 C7.1,0.8 8.9,2.6 8.9,4.8 C8.9,7 7.1,8.8 4.9,8.8 C2.6,8.8 0.9,7 0.9,4.8 L0.9,4.8 Z" id="Shape"></path>
                                    </g>
                                    <g id="Dots_4_" transform="translate(0.000000, 16.000000)">
                                        <path d="M0.9,4.5 C0.9,2.3 2.7,0.5 4.9,0.5 C7.1,0.5 8.9,2.3 8.9,4.5 C8.9,6.7 7.1,8.5 4.9,8.5 C2.6,8.5 0.9,6.7 0.9,4.5 L0.9,4.5 Z" id="Shape"></path>
                                    </g>
                                    <g id="Dots_3_" transform="translate(0.000000, 32.000000)">
                                        <path d="M0.9,4.2 C0.9,2 2.7,0.2 4.9,0.2 C7.1,0.2 8.9,2 8.9,4.2 C8.9,6.4 7.1,8.2 4.9,8.2 C2.6,8.2 0.9,6.4 0.9,4.2 L0.9,4.2 Z" id="Shape"></path>
                                    </g>
                                </g>
                            </g>
                        </g>
                    </g>
                </g>
            </g>
        </g>
    </g>
</svg>