<?xml version="1.0" encoding="UTF-8"?>
<svg width="22px" height="22px" viewBox="0 0 22 22" version="1.1" xmlns="http://www.w3.org/2000/svg" xmlns:xlink="http://www.w3.org/1999/xlink">
    <!-- Generator: Sketch 49.3 (51167) - http://www.bohemiancoding.com/sketch -->
    <title>new_story</title>
    <desc>Created with Sketch.</desc>
    <defs></defs>
    <g id="Page-1" stroke="none" stroke-width="1" fill="none" fill-rule="evenodd">
        <g id="Profile" transform="translate(-51.000000, -337.000000)">
            <g id="page">
                <g id="content" transform="translate(0.000000, 64.000000)">
                    <g id="card">
                        <g id="Media" transform="translate(0.000000, 208.000000)">
                            <g id="Thumbnail-3-+-Thumbnail-2-+-Thumbnail-1-+-Mask-Mask" transform="translate(12.000000, 34.000000)">
                                <g id="Group-16" transform="translate(19.000000, 28.000000)">
                                    <g id="new_story" transform="translate(17.000000, 0.000000)">
                                        <rect id="bounds" opacity="0.4" x="0" y="0" width="28" height="28"></rect>
                                        <path d="M8,3 L20,3 C22.7614237,3 25,5.23857625 25,8 L25,20 C25,22.7614237 22.7614237,25 20,25 L8,25 C5.23857625,25 3,22.7614237 3,20 L3,8 C3,5.23857625 5.23857625,3 8,3 Z M8,14 C8,17.312 10.688,20 14,20 C17.312,20 20,17.312 20,14 C20,10.688 17.312,8 14,8 C10.688,8 8,10.688 8,14 Z M10,14 C10,11.790625 11.790625,10 14,10 C16.209375,10 18,11.790625 18,14 C18,16.209375 16.209375,18 14,18 C11.790625,18 10,16.209375 10,14 Z" id="Combined-Shape" fill="#FFFFFF"></path>
                                    </g>
                                </g>
                            </g>
                        </g>
                    </g>
                </g>
            </g>
        </g>
    </g>
</svg>