<?xml version="1.0" encoding="UTF-8"?>
<svg width="58px" height="60px" viewBox="0 0 58 60" version="1.1" xmlns="http://www.w3.org/2000/svg" xmlns:xlink="http://www.w3.org/1999/xlink">
    <!-- Generator: Sketch 49.1 (51147) - http://www.bohemiancoding.com/sketch -->
    <title>Like</title>
    <desc>Created with Sketch.</desc>
    <defs></defs>
    <g id="IOS" stroke="none" stroke-width="1" fill="none" fill-rule="evenodd">
        <g id="7С---iOS-" transform="translate(-960.000000, -1189.000000)">
            <g id="iOS---Keyboard" transform="translate(-5.000000, 1045.000000)">
                <g id="Text-Field" transform="translate(5.000000, 0.000000)">
                    <g id="Buttons" transform="translate(31.680000, 144.000000)">
                        <g id="Like" transform="translate(928.800000, 1.000000)">
                            <path d="M17.1607326,23.4706247 L25.9823782,11.4492871 L25.9823782,0.159008073 C25.9823782,0.159008073 29.4884969,-0.208218015 31.0728422,0.416981439 C36.9440554,2.73382457 35.0093211,17.4572976 35.0093211,17.4572976 C35.0093211,17.4572976 49.411206,17.4572976 51.8080662,17.4572976 C53.0662694,17.4572976 56.1680202,20.5068812 56.1185363,22.5602829 C56.0690525,24.6136846 54.5264925,26.2768765 54.5264925,27.1577411 C54.5264925,28.0386056 56.1763275,28.6802031 56.1680203,31.1537296 C56.1597131,33.6272561 52.7089171,35.2144068 52.7089171,36.5425655 C52.7089171,37.6504246 54.3255598,38.9794852 53.4909774,41.1842568 C52.6563951,43.3890284 50.1566668,43.2711825 49.5461812,44.7588055 C48.9356957,46.2464285 49.4064595,45.8807486 48.9768926,48.123875 C48.5473257,50.3670015 47.3745247,52.4011741 46.1493761,52.4011755 C44.5455837,52.4011774 17.4228751,52.4011728 17.4228751,52.4011728 L17.1607326,23.4706247 Z" id="Path" stroke="#616770" stroke-width="2"></path>
                            <path d="M0,23.48 L12.96,23.48 L12.96,58.04 L0,58.04 L0,23.48 Z M2.88,26.36 L2.88,55.16 L10.08,55.16 L10.08,26.36 L2.88,26.36 Z" id="Path" fill="#616770"></path>
                        </g>
                    </g>
                </g>
            </g>
        </g>
    </g>
</svg>